<?xml version="1.0" encoding="UTF-8" standalone="no"?>
<!-- Created with Inkscape (http://www.inkscape.org/) -->

<svg
   xmlns:dc="http://purl.org/dc/elements/1.1/"
   xmlns:cc="http://creativecommons.org/ns#"
   xmlns:rdf="http://www.w3.org/1999/02/22-rdf-syntax-ns#"
   xmlns:svg="http://www.w3.org/2000/svg"
   xmlns="http://www.w3.org/2000/svg"
   xmlns:sodipodi="http://sodipodi.sourceforge.net/DTD/sodipodi-0.dtd"
   xmlns:inkscape="http://www.inkscape.org/namespaces/inkscape"
   version="1.1"
   width="27"
   height="45.919998"
   id="svg2873"
   inkscape:version="0.47 r22583"
   sodipodi:docname="crotchet_rest_plain-svg.svg">
  <metadata
     id="metadata9">
    <rdf:RDF>
      <cc:Work
         rdf:about="">
        <dc:format>image/svg+xml</dc:format>
        <dc:type
           rdf:resource="http://purl.org/dc/dcmitype/StillImage" />
        <dc:title></dc:title>
      </cc:Work>
    </rdf:RDF>
  </metadata>
  <sodipodi:namedview
     pagecolor="#ffffff"
     bordercolor="#666666"
     borderopacity="1"
     objecttolerance="10"
     gridtolerance="10"
     guidetolerance="10"
     inkscape:pageopacity="0"
     inkscape:pageshadow="2"
     inkscape:window-width="640"
     inkscape:window-height="484"
     id="namedview7"
     showgrid="false"
     inkscape:zoom="5.139373"
     inkscape:cx="13.5"
     inkscape:cy="22.959999"
     inkscape:window-x="0"
     inkscape:window-y="0"
     inkscape:window-maximized="0"
     inkscape:current-layer="svg2873" />
  <defs
     id="defs2875">
    <inkscape:perspective
       sodipodi:type="inkscape:persp3d"
       inkscape:vp_x="0 : 22.959999 : 1"
       inkscape:vp_y="0 : 1000 : 0"
       inkscape:vp_z="27 : 22.959999 : 1"
       inkscape:persp3d-origin="13.5 : 15.306666 : 1"
       id="perspective11" />
  </defs>
  <g
     transform="translate(0,-1006.4394)"
     id="layer1">
    <g
       transform="scale(-1,1)"
       style="font-size:40px;font-style:normal;font-weight:normal;fill:#000000;fill-opacity:1;stroke:none;font-family:Bitstream Vera Sans"
       id="text2883">
      <path
         d="m 0,1009.0468 -12.09375,43.3125 -4.640625,0 9.0703125,-32.5547 c -3.9843925,1.9688 -7.1718895,2.9531 -9.5624995,2.9532 -2.43751,-10e-5 -4.687508,-0.8672 -6.75,-2.6016 -2.015629,-1.7344 -3.02344,-3.8203 -3.023438,-6.2578 -2e-6,-2.0625 0.726559,-3.8203 2.179688,-5.2735 1.453118,-1.4531 3.210929,-2.1796 5.273437,-2.1796 2.062488,0 3.820299,0.7265 5.273437,2.1796 1.453109,1.4532 2.179671,3.211 2.179688,5.2735 -1.7e-5,1.2187 -0.281267,2.3672 -0.84375,3.4453 0.234358,0.1875 0.445296,0.2812 0.632812,0.2812 1.359357,0 3.1406053,-1.125 5.3437505,-3.375 1.7812258,-1.7812 3.1874744,-3.5156 4.21875,-5.2031 l 2.7421875,0"
         style="font-size:144px;font-variant:normal;font-stretch:normal;font-family:Musica;-inkscape-font-specification:Musica"
         id="path2818" />
    </g>
  </g>
</svg>
